…
# Examples:

Get a summary about assessed uses from the Texas Commission on
Environmental Quality:

``` R
library(rATTAINS)
state_summary(
  organization_id = "TCEQMAIN",
  reporting_cycle = "2020",
  .unnest = FALSE
)
#> $items
#> # A tibble: 31 × 18
#>    organizationIdentifier organizationName organizationTypeText reportingCycle
#>    <chr>                  <chr>            <chr>                <chr>         
#>  1 TCEQMAIN               Texas            State                2020          
#>  2 TCEQMAIN               Texas            State                2020          
#>  3 TCEQMAIN               Texas            State                2020          
#>  4 TCEQMAIN               Texas            State                2020          
#>  5 TCEQMAIN               Texas            State                2020          
#>  6 TCEQMAIN               Texas            State                2020          
#>  7 TCEQMAIN               Texas            State                2020          
#>  8 TCEQMAIN               Texas            State                2020          
#>  9 TCEQMAIN               Texas            State                2020          
#> 10 TCEQMAIN               Texas            State                2020          
#> # ℹ 21 more rows
#> # ℹ 14 more variables: cycleStatus <chr>, combinedCycles <list>,
#> #   waterTypeCode <chr>, unitsCode <chr>, useName <chr>,
#> #   `Fully Supporting` <dbl>, `Fully Supporting-count` <int>,
#> #   `Insufficient Information` <dbl>, `Insufficient Information-count` <int>,
#> #   `Not Assessed` <dbl>, `Not Assessed-count` <int>, `Not Supporting` <dbl>,
#> #   `Not Supporting-count` <int>, parameters <list>
```
…
Find statistical surveys completed by an organization:

``` R
surveys(organization_id = "SDDENR", .unnest = TRUE)
#> Unable to further unnest data, check for nested dataframes.
#> $count
#> # A tibble: 1 × 1
#>   count
#>   <int>
#> 1     5
#> 
#> $items
#> # A tibble: 25 × 15
#>    organizationIdentifier organizationName organizationTypeText surveyStatusCode
#>    <chr>                  <chr>            <chr>                <chr>           
#>  1 SDDENR                 South Dakota     State                Final           
#>  2 SDDENR                 South Dakota     State                Final           
#>  3 SDDENR                 South Dakota     State                Final           
#>  4 SDDENR                 South Dakota     State                Final           
#>  5 SDDENR                 South Dakota     State                Final           
#>  6 SDDENR                 South Dakota     State                Final           
#>  7 SDDENR                 South Dakota     State                Final           
#>  8 SDDENR                 South Dakota     State                Final           
#>  9 SDDENR                 South Dakota     State                Final           
#> 10 SDDENR                 South Dakota     State                Final           
#> # ℹ 15 more rows
#> # ℹ 11 more variables: year <int>, surveyCommentText <lgl>, documents <list>,
#> #   waterTypeGroupCode <chr>, subPopulationCode <chr>, unitCode <chr>,
#> #   size <int>, siteNumber <int>, surveyWaterGroupCommentText <chr>,
#> #   surveyWaterGroupUseParameters <list>, histories <list>
```
…
