…
# Examples:

Get a summary about assessed uses from the Texas Commission on
Environmental Quality:

``` r
library(rATTAINS)
state_summary(
  organization_id = "TCEQMAIN",
  reporting_cycle = "2020",
  .unnest = FALSE
)
#> $items
#> # A tibble: 31 × 18
#>    organizationIdentifier organizationName organizationTypeText reportingCycle cycleStatus      combinedCycles waterTypeCode unitsCode  useName `Fully Supporting`
#>    <chr>                  <chr>            <chr>                <chr>          <chr>            <list>         <chr>         <chr>      <chr>                <dbl>
#>  1 TCEQMAIN               Texas            State                2020           EPA Final Action <list [0]>     ESTUARY       Square Mi… Aquati…              1861.
#>  2 TCEQMAIN               Texas            State                2020           EPA Final Action <list [0]>     ESTUARY       Square Mi… Recrea…              2255.
#>  3 TCEQMAIN               Texas            State                2020           EPA Final Action <list [0]>     ESTUARY       Square Mi… Oyster…              1521.
#>  4 TCEQMAIN               Texas            State                2020           EPA Final Action <list [0]>     ESTUARY       Square Mi… Genera…              2514.
#>  5 TCEQMAIN               Texas            State                2020           EPA Final Action <list [0]>     ESTUARY       Square Mi… Fish C…               270.
#>  6 TCEQMAIN               Texas            State                2020           EPA Final Action <list [0]>     RESERVOIR     Acres      DOMEST…           1307186.
#>  7 TCEQMAIN               Texas            State                2020           EPA Final Action <list [0]>     RESERVOIR     Acres      Aquati…           1081213.
#>  8 TCEQMAIN               Texas            State                2020           EPA Final Action <list [0]>     RESERVOIR     Acres      Fish C…            159491.
#>  9 TCEQMAIN               Texas            State                2020           EPA Final Action <list [0]>     RESERVOIR     Acres      Genera…           1141350.
#> 10 TCEQMAIN               Texas            State                2020           EPA Final Action <list [0]>     RESERVOIR     Acres      Recrea…            842009.
#> # ℹ 21 more rows
#> # ℹ 8 more variables: `Fully Supporting-count` <int>, `Insufficient Information` <dbl>, `Insufficient Information-count` <int>, `Not Assessed` <dbl>,
#> #   `Not Assessed-count` <int>, `Not Supporting` <dbl>, `Not Supporting-count` <int>, parameters <list>
```
…
Find statistical surveys completed by an organization:

``` r
surveys(organization_id = "SDDENR", .unnest = TRUE)
#> Unable to further unnest data, check for nested dataframes.
#> $count
#> # A tibble: 1 × 1
#>   count
#>   <int>
#> 1     5
#> 
#> $items
#> # A tibble: 25 × 15
#>    organizationIdentifier organizationName organizationTypeText surveyStatusCode  year surveyCommentText documents waterTypeGroupCode  subPopulationCode unitCode
#>    <chr>                  <chr>            <chr>                <chr>            <int> <lgl>             <list>    <chr>               <chr>             <chr>   
#>  1 SDDENR                 South Dakota     State                Final             2018 NA                <NULL>    LAKE/RESERVOIR/POND Statewide         Acres   
#>  2 SDDENR                 South Dakota     State                Final             2018 NA                <NULL>    LAKE/RESERVOIR/POND Statewide         Acres   
#>  3 SDDENR                 South Dakota     State                Final             2018 NA                <NULL>    LAKE/RESERVOIR/POND Statewide         Acres   
#>  4 SDDENR                 South Dakota     State                Final             2018 NA                <NULL>    LAKE/RESERVOIR/POND Statewide         Acres   
#>  5 SDDENR                 South Dakota     State                Final             2018 NA                <NULL>    LAKE/RESERVOIR/POND Statewide         Acres   
#>  6 SDDENR                 South Dakota     State                Final             2016 NA                <NULL>    LAKE/RESERVOIR/POND Statewide         Acres   
#>  7 SDDENR                 South Dakota     State                Final             2016 NA                <NULL>    LAKE/RESERVOIR/POND Statewide         Acres   
#>  8 SDDENR                 South Dakota     State                Final             2016 NA                <NULL>    LAKE/RESERVOIR/POND Statewide         Acres   
#>  9 SDDENR                 South Dakota     State                Final             2016 NA                <NULL>    LAKE/RESERVOIR/POND Statewide         Acres   
#> 10 SDDENR                 South Dakota     State                Final             2016 NA                <NULL>    LAKE/RESERVOIR/POND Statewide         Acres   
#> # ℹ 15 more rows
#> # ℹ 5 more variables: size <int>, siteNumber <int>, surveyWaterGroupCommentText <chr>, surveyWaterGroupUseParameters <list>, histories <list>
```
…
