Dealing with Errors • rATTAINS
…
Default behavior:

state_summary(organization_id = "SDDENR", reporting_cycle = "2024")
#> Unable to further unnest data, check for nested dataframes.
#> $items
#> # A tibble: 21 × 18
#>    organizationIdentifier organizationName organizationTypeText reportingCycle
#>    <chr>                  <chr>            <chr>                <chr>         
#>  1 SDDENR                 South Dakota     State                2024          
#>  2 SDDENR                 South Dakota     State                2024          
#>  3 SDDENR                 South Dakota     State                2024          
#>  4 SDDENR                 South Dakota     State                2024          
#>  5 SDDENR                 South Dakota     State                2024          
#>  6 SDDENR                 South Dakota     State                2024          
#>  7 SDDENR                 South Dakota     State                2024          
#>  8 SDDENR                 South Dakota     State                2024          
#>  9 SDDENR                 South Dakota     State                2024          
#> 10 SDDENR                 South Dakota     State                2024          
#> # ℹ 11 more rows
#> # ℹ 14 more variables: cycleStatus <chr>, combinedCycles <list>,
#> #   waterTypeCode <chr>, unitsCode <chr>, useName <chr>,
#> #   `Fully Supporting` <dbl>, `Fully Supporting-count` <int>,
#> #   `Insufficient Information` <dbl>, `Insufficient Information-count` <int>,
#> #   `Not Supporting` <dbl>, `Not Supporting-count` <int>, parameters <list>,
#> #   `Not Assessed` <dbl>, `Not Assessed-count` <int>
…
df$items |>
  dplyr::select(parameters) |>
  tidyr::unnest_wider(parameters) |>
  tidyr::unnest(c(
    parameterGroup,
    Cause,
    "Cause-count",
    "Meeting Criteria",
    "Meeting Criteria-count",
    "Insufficient Information",
    "Insufficient Information-count"
  ))
#> # A tibble: 108 × 7
#>    parameterGroup                     Cause `Cause-count` Insufficient Informa…¹
#>    <chr>                              <dbl>         <int>                  <dbl>
#>  1 PH/ACIDITY/CAUSTIC CONDITIONS     2.31e3            10                   438.
#>  2 TURBIDITY                        NA                 NA                   608.
#>  3 TEMPERATURE                      NA                 NA                   280.
#>  4 ALGAL GROWTH                      2.61e4            17                  5263.
#>  5 ORGANIC ENRICHMENT/OXYGEN DEPLE…  9.68e2             9                   458.
#>  6 AMMONIA                          NA                 NA                   608.
#>  7 MERCURY                           2.50e4            16                    NA 
#>  8 PH/ACIDITY/CAUSTIC CONDITIONS     9.81e0             2                    NA 
#>  9 MERCURY                           1.25e2             1                    NA 
#> 10 ALGAL GROWTH                      1.56e2             3                    NA 
#> # ℹ 98 more rows
#> # ℹ abbreviated name: ¹​`Insufficient Information`
#> # ℹ 3 more variables: `Insufficient Information-count` <int>,
#> #   `Meeting Criteria` <dbl>, `Meeting Criteria-count` <int>
…
list_data <- jsonlite::fromJSON(
  raw_data,
  simplifyVector = TRUE,
  simplifyDataFrame = TRUE,
  flatten = FALSE
)

df <- tibble::as_tibble(list_data$data)
df |>
  tidyr::unnest(reportingCycles) |>
  tidyr::unnest(waterTypes) |>
  tidyr::unnest(useAttainments)
#> # A tibble: 21 × 18
#>    organizationIdentifier organizationName organizationTypeText reportingCycle
#>    <chr>                  <chr>            <chr>                <chr>         
#>  1 SDDENR                 South Dakota     State                2024          
#>  2 SDDENR                 South Dakota     State                2024          
#>  3 SDDENR                 South Dakota     State                2024          
#>  4 SDDENR                 South Dakota     State                2024          
#>  5 SDDENR                 South Dakota     State                2024          
#>  6 SDDENR                 South Dakota     State                2024          
#>  7 SDDENR                 South Dakota     State                2024          
#>  8 SDDENR                 South Dakota     State                2024          
#>  9 SDDENR                 South Dakota     State                2024          
#> 10 SDDENR                 South Dakota     State                2024          
#> # ℹ 11 more rows
#> # ℹ 14 more variables: cycleStatus <chr>, combinedCycles <list>,
#> #   waterTypeCode <chr>, unitsCode <chr>, useName <chr>,
#> #   `Fully Supporting` <dbl>, `Fully Supporting-count` <int>,
#> #   `Insufficient Information` <dbl>, `Insufficient Information-count` <int>,
#> #   `Not Supporting` <dbl>, `Not Supporting-count` <int>, parameters <list>,
#> #   `Not Assessed` <dbl>, `Not Assessed-count` <int>
…
