Introduction • rATTAINS
…
For example if I want to find out the possible organization
identifiers to query by:

x <- domain_values(domain_name = "OrgStateCode")
x
#> # A tibble: 157 × 6
#>    domain       name  code  context      context2 dateModified
#>    <chr>        <chr> <chr> <chr>        <chr>    <chr>       
#>  1 OrgStateCode AK    AK    EPA          EPA      2017-08-28  
#>  2 OrgStateCode FL    FL    21FL303D     State    2025-01-29  
#>  3 OrgStateCode PA    PA    EPA          EPA      2017-08-28  
#>  4 OrgStateCode MT    MT    BLCKFEET     Tribe    2024-04-09  
#>  5 OrgStateCode CC    CC    TEST_ORG_C   Test     2017-08-28  
#>  6 OrgStateCode AZ    AZ    TEST_TRIBE_B Tribe    2017-10-18  
#>  7 OrgStateCode OK    OK    ESTO         Tribe    2024-04-09  
#>  8 OrgStateCode MS    MS    21MSWQ       State    2017-08-28  
#>  9 OrgStateCode CT    CT    CT_DEP01     State    2020-02-25  
#> 10 OrgStateCode ND    ND    21NDHDWQ     State    2024-06-19  
#> # ℹ 147 more rows

The function returns a variable with the state codes and the possible
parameter values as the context variable. Similarly if I want to look up
possible Use Names that are utilized by the Texas Commission on
Environmental Quality:

x <- domain_values(domain_name = "UseName", context = "TCEQMAIN")
x
#> # A tibble: 1,357 × 6
#>    domain  name                              code  context context2 dateModified
#>    <chr>   <chr>                             <chr> <chr>   <chr>    <chr>       
#>  1 UseName Primary Contact Recreation        Prim… 21DELA… RECREAT… 2017-08-28  
#>  2 UseName SECONDARY CONTACT (RECR)          SECO… CT_DEP… RECREAT… 2018-08-10  
#>  3 UseName Domestic Water Supply Waters      Dome… TEST_O… NA       2017-08-28  
#>  4 UseName Aquatic Life                      Aqua… HVTEPA  ECOLOGI… 2017-12-08  
#>  5 UseName Hydroelectric Power Generation    Hydr… MEDEP   OTHER_U… 2017-08-28  
#>  6 UseName Aquatic Life: Lake Sturgeon Wate… Aqua… LRBOI   ECOLOGI… 2021-01-06  
#>  7 UseName Outstanding Tribal Resource Wate… Outs… TAOSPB… OTHER_U… 2021-01-06  
#>  8 UseName Wildlife                          Wild… WIDNR   ECOLOGI… 2022-05-23  
#>  9 UseName Aquatic Life                      Aqua… POLSWA… ECOLOGI… 2021-01-06  
#> 10 UseName Drinking Water                    Drin… PUEBLO… DRINKIN… 2022-09-15  
#> # ℹ 1,347 more rows
…
